%YAML 1.1
%TAG !u! tag:unity3d.com,2011:
--- !u!1001 &100100000
Prefab:
  m_ObjectHideFlags: 1
  serializedVersion: 2
  m_Modification:
    m_TransformParent: {fileID: 0}
    m_Modifications: []
    m_RemovedComponents: []
  m_ParentPrefab: {fileID: 0}
  m_RootGameObject: {fileID: 1739969512567774}
  m_IsPrefabParent: 1
--- !u!1 &1739969512567774
GameObject:
  m_ObjectHideFlags: 0
  m_PrefabParentObject: {fileID: 0}
  m_PrefabInternal: {fileID: 100100000}
  serializedVersion: 5
  m_Component:
  - component: {fileID: 4233060250374456}
  - component: {fileID: 212813873439238632}
  - component: {fileID: 60988373570303916}
  m_Layer: 0
  m_Name: Rock
  m_TagString: Untagged
  m_Icon: {fileID: 0}
  m_NavMeshLayer: 0
  m_StaticEditorFlags: 0
  m_IsActive: 1
--- !u!4 &4233060250374456
Transform:
  m_ObjectHideFlags: 1
  m_PrefabParentObject: {fileID: 0}
  m_PrefabInternal: {fileID: 100100000}
  m_GameObject: {fileID: 1739969512567774}
  m_LocalRotation: {x: -1, y: 0, z: 0, w: 0}
  m_LocalPosition: {x: 10.68, y: -3.3, z: 0}
  m_LocalScale: {x: 1.5, y: 1.5, z: 1}
  m_Children: []
  m_Father: {fileID: 0}
  m_RootOrder: 0
  m_LocalEulerAnglesHint: {x: -180, y: 0, z: 0}
--- !u!60 &60988373570303916
PolygonCollider2D:
  m_ObjectHideFlags: 1
  m_PrefabParentObject: {fileID: 0}
  m_PrefabInternal: {fileID: 100100000}
  m_GameObject: {fileID: 1739969512567774}
  m_Enabled: 1
  m_Density: 1
  m_Material: {fileID: 0}
  m_IsTrigger: 1
  m_UsedByEffector: 0
  m_UsedByComposite: 0
  m_Offset: {x: 0, y: 0}
  m_SpriteTilingProperty:
    border: {x: 0, y: 0, z: 0, w: 0}
    pivot: {x: 0.5, y: 0.5}
    oldSize: {x: 1.08, y: 2.39}
    newSize: {x: 1.08, y: 2.39}
    adaptiveTilingThreshold: 0.5
    drawMode: 0
    adaptiveTiling: 0
  m_AutoTiling: 0
  m_Points:
    m_Paths:
    - - {x: 0.29, y: -0.255}
      - {x: 0.35, y: -0.16499999}
      - {x: 0.37, y: -0.015}
      - {x: 0.42999998, y: 0.505}
      - {x: 0.48, y: 0.565}
      - {x: 0.48999998, y: 0.615}
      - {x: 0.51, y: 0.775}
      - {x: 0.53, y: 0.92499995}
      - {x: 0.53999996, y: 1.005}
      - {x: 0.53999996, y: 1.1949999}
      - {x: -0.53999996, y: 1.1949999}
      - {x: -0.53999996, y: 1.0849999}
      - {x: -0.53, y: 1.045}
      - {x: -0.45999998, y: 0.78499997}
      - {x: -0.38, y: 0.48499998}
      - {x: -0.31, y: 0.225}
      - {x: -0.28, y: 0.114999995}
      - {x: -0.21, y: 0.035}
      - {x: -0.17999999, y: -0.044999998}
      - {x: -0.089999996, y: -0.49499997}
      - {x: -0.06, y: -0.685}
      - {x: 0.04, y: -1.115}
      - {x: 0.049999997, y: -1.155}
      - {x: 0.07, y: -1.1949999}
      - {x: 0.17999999, y: -1.1949999}
      - {x: 0.19999999, y: -1.155}
      - {x: 0.19999999, y: -1.055}
      - {x: 0.26999998, y: -0.42499998}
--- !u!212 &212813873439238632
SpriteRenderer:
  m_ObjectHideFlags: 1
  m_PrefabParentObject: {fileID: 0}
  m_PrefabInternal: {fileID: 100100000}
  m_GameObject: {fileID: 1739969512567774}
  m_Enabled: 1
  m_CastShadows: 0
  m_ReceiveShadows: 0
  m_MotionVectors: 1
  m_LightProbeUsage: 1
  m_ReflectionProbeUsage: 1
  m_Materials:
  - {fileID: 10754, guid: 0000000000000000f000000000000000, type: 0}
  m_StaticBatchInfo:
    firstSubMesh: 0
    subMeshCount: 0
  m_StaticBatchRoot: {fileID: 0}
  m_ProbeAnchor: {fileID: 0}
  m_LightProbeVolumeOverride: {fileID: 0}
  m_ScaleInLightmap: 1
  m_PreserveUVs: 0
  m_IgnoreNormalsForChartDetection: 0
  m_ImportantGI: 0
  m_SelectedEditorRenderState: 0
  m_MinimumChartSize: 4
  m_AutoUVMaxDistance: 0.5
  m_AutoUVMaxAngle: 89
  m_LightmapParameters: {fileID: 0}
  m_SortingLayerID: 0
  m_SortingLayer: 0
  m_SortingOrder: 0
  m_Sprite: {fileID: 21300000, guid: e771bf4eb724c4352a03878025ad292b, type: 3}
  m_Color: {r: 1, g: 1, b: 1, a: 1}
  m_FlipX: 0
  m_FlipY: 0
  m_DrawMode: 0
  m_Size: {x: 1.08, y: 2.39}
  m_AdaptiveModeThreshold: 0.5
  m_SpriteTileMode: 0
